{
  "contractName": "Context",
  "abi": [],
  "metadata": "{\"compiler\":{\"version\":\"0.8.7+commit.e28d00a7\"},\"language\":\"Solidity\",\"output\":{\"abi\":[],\"devdoc\":{\"kind\":\"dev\",\"methods\":{},\"version\":1},\"userdoc\":{\"kind\":\"user\",\"methods\":{},\"version\":1}},\"settings\":{\"compilationTarget\":{\"@openzeppelin/contracts/utils/Context.sol\":\"Context\"},\"evmVersion\":\"petersburg\",\"libraries\":{},\"metadata\":{\"bytecodeHash\":\"ipfs\"},\"optimizer\":{\"enabled\":false,\"runs\":200},\"remappings\":[]},\"sources\":{\"@openzeppelin/contracts/utils/Context.sol\":{\"keccak256\":\"0x95098bd1d9c8dec4d80d3dedb88a0d949fa0d740ee99f2aa466bc308216ca6d5\",\"license\":\"MIT\",\"urls\":[\"bzz-raw://7fec968dcd68e13961521fa3c7dd87baecad91a2653b19240e81f21cc4f3ba85\",\"dweb:/ipfs/QmaXtsYt4Mphm8XHNUfk2me1cF3ssS2SqDBNFpYAzMjomC\"]}},\"version\":1}",
  "bytecode": "0x",
  "deployedBytecode": "0x",
  "immutableReferences": {},
  "sourceMap": "",
  "deployedSourceMap": "",
  "source": "// SPDX-License-Identifier: MIT\n\npragma solidity ^0.8.0;\n\n/*\n * @dev Provides information about the current execution context, including the\n * sender of the transaction and its data. While these are generally available\n * via msg.sender and msg.data, they should not be accessed in such a direct\n * manner, since when dealing with meta-transactions the account sending and\n * paying for execution may not be the actual sender (as far as an application\n * is concerned).\n *\n * This contract is only required for intermediate, library-like contracts.\n */\nabstract contract Context {\n    function _msgSender() internal view virtual returns (address) {\n        return msg.sender;\n    }\n\n    function _msgData() internal view virtual returns (bytes calldata) {\n        return msg.data;\n    }\n}\n",
  "sourcePath": "@openzeppelin/contracts/utils/Context.sol",
  "ast": {
    "absolutePath": "@openzeppelin/contracts/utils/Context.sol",
    "exportedSymbols": {
      "Context": [
        3291
      ]
    },
    "id": 3292,
    "license": "MIT",
    "nodeType": "SourceUnit",
    "nodes": [
      {
        "id": 3272,
        "literals": [
          "solidity",
          "^",
          "0.8",
          ".0"
        ],
        "nodeType": "PragmaDirective",
        "src": "33:23:11"
      },
      {
        "abstract": true,
        "baseContracts": [],
        "contractDependencies": [],
        "contractKind": "contract",
        "fullyImplemented": true,
        "id": 3291,
        "linearizedBaseContracts": [
          3291
        ],
        "name": "Context",
        "nameLocation": "572:7:11",
        "nodeType": "ContractDefinition",
        "nodes": [
          {
            "body": {
              "id": 3280,
              "nodeType": "Block",
              "src": "648:34:11",
              "statements": [
                {
                  "expression": {
                    "expression": {
                      "id": 3277,
                      "name": "msg",
                      "nodeType": "Identifier",
                      "overloadedDeclarations": [],
                      "referencedDeclaration": 4294967281,
                      "src": "665:3:11",
                      "typeDescriptions": {
                        "typeIdentifier": "t_magic_message",
                        "typeString": "msg"
                      }
                    },
                    "id": 3278,
                    "isConstant": false,
                    "isLValue": false,
                    "isPure": false,
                    "lValueRequested": false,
                    "memberName": "sender",
                    "nodeType": "MemberAccess",
                    "src": "665:10:11",
                    "typeDescriptions": {
                      "typeIdentifier": "t_address",
                      "typeString": "address"
                    }
                  },
                  "functionReturnParameters": 3276,
                  "id": 3279,
                  "nodeType": "Return",
                  "src": "658:17:11"
                }
              ]
            },
            "id": 3281,
            "implemented": true,
            "kind": "function",
            "modifiers": [],
            "name": "_msgSender",
            "nameLocation": "595:10:11",
            "nodeType": "FunctionDefinition",
            "parameters": {
              "id": 3273,
              "nodeType": "ParameterList",
              "parameters": [],
              "src": "605:2:11"
            },
            "returnParameters": {
              "id": 3276,
              "nodeType": "ParameterList",
              "parameters": [
                {
                  "constant": false,
                  "id": 3275,
                  "mutability": "mutable",
                  "name": "",
                  "nameLocation": "-1:-1:-1",
                  "nodeType": "VariableDeclaration",
                  "scope": 3281,
                  "src": "639:7:11",
                  "stateVariable": false,
                  "storageLocation": "default",
                  "typeDescriptions": {
                    "typeIdentifier": "t_address",
                    "typeString": "address"
                  },
                  "typeName": {
                    "id": 3274,
                    "name": "address",
                    "nodeType": "ElementaryTypeName",
                    "src": "639:7:11",
                    "stateMutability": "nonpayable",
                    "typeDescriptions": {
                      "typeIdentifier": "t_address",
                      "typeString": "address"
                    }
                  },
                  "visibility": "internal"
                }
              ],
              "src": "638:9:11"
            },
            "scope": 3291,
            "src": "586:96:11",
            "stateMutability": "view",
            "virtual": true,
            "visibility": "internal"
          },
          {
            "body": {
              "id": 3289,
              "nodeType": "Block",
              "src": "755:32:11",
              "statements": [
                {
                  "expression": {
                    "expression": {
                      "id": 3286,
                      "name": "msg",
                      "nodeType": "Identifier",
                      "overloadedDeclarations": [],
                      "referencedDeclaration": 4294967281,
                      "src": "772:3:11",
                      "typeDescriptions": {
                        "typeIdentifier": "t_magic_message",
                        "typeString": "msg"
                      }
                    },
                    "id": 3287,
                    "isConstant": false,
                    "isLValue": false,
                    "isPure": false,
                    "lValueRequested": false,
                    "memberName": "data",
                    "nodeType": "MemberAccess",
                    "src": "772:8:11",
                    "typeDescriptions": {
                      "typeIdentifier": "t_bytes_calldata_ptr",
                      "typeString": "bytes calldata"
                    }
                  },
                  "functionReturnParameters": 3285,
                  "id": 3288,
                  "nodeType": "Return",
                  "src": "765:15:11"
                }
              ]
            },
            "id": 3290,
            "implemented": true,
            "kind": "function",
            "modifiers": [],
            "name": "_msgData",
            "nameLocation": "697:8:11",
            "nodeType": "FunctionDefinition",
            "parameters": {
              "id": 3282,
              "nodeType": "ParameterList",
              "parameters": [],
              "src": "705:2:11"
            },
            "returnParameters": {
              "id": 3285,
              "nodeType": "ParameterList",
              "parameters": [
                {
                  "constant": false,
                  "id": 3284,
                  "mutability": "mutable",
                  "name": "",
                  "nameLocation": "-1:-1:-1",
                  "nodeType": "VariableDeclaration",
                  "scope": 3290,
                  "src": "739:14:11",
                  "stateVariable": false,
                  "storageLocation": "calldata",
                  "typeDescriptions": {
                    "typeIdentifier": "t_bytes_calldata_ptr",
                    "typeString": "bytes"
                  },
                  "typeName": {
                    "id": 3283,
                    "name": "bytes",
                    "nodeType": "ElementaryTypeName",
                    "src": "739:5:11",
                    "typeDescriptions": {
                      "typeIdentifier": "t_bytes_storage_ptr",
                      "typeString": "bytes"
                    }
                  },
                  "visibility": "internal"
                }
              ],
              "src": "738:16:11"
            },
            "scope": 3291,
            "src": "688:99:11",
            "stateMutability": "view",
            "virtual": true,
            "visibility": "internal"
          }
        ],
        "scope": 3292,
        "src": "554:235:11",
        "usedErrors": []
      }
    ],
    "src": "33:757:11"
  },
  "legacyAST": {
    "absolutePath": "@openzeppelin/contracts/utils/Context.sol",
    "exportedSymbols": {
      "Context": [
        3291
      ]
    },
    "id": 3292,
    "license": "MIT",
    "nodeType": "SourceUnit",
    "nodes": [
      {
        "id": 3272,
        "literals": [
          "solidity",
          "^",
          "0.8",
          ".0"
        ],
        "nodeType": "PragmaDirective",
        "src": "33:23:11"
      },
      {
        "abstract": true,
        "baseContracts": [],
        "contractDependencies": [],
        "contractKind": "contract",
        "fullyImplemented": true,
        "id": 3291,
        "linearizedBaseContracts": [
          3291
        ],
        "name": "Context",
        "nameLocation": "572:7:11",
        "nodeType": "ContractDefinition",
        "nodes": [
          {
            "body": {
              "id": 3280,
              "nodeType": "Block",
              "src": "648:34:11",
              "statements": [
                {
                  "expression": {
                    "expression": {
                      "id": 3277,
                      "name": "msg",
                      "nodeType": "Identifier",
                      "overloadedDeclarations": [],
                      "referencedDeclaration": 4294967281,
                      "src": "665:3:11",
                      "typeDescriptions": {
                        "typeIdentifier": "t_magic_message",
                        "typeString": "msg"
                      }
                    },
                    "id": 3278,
                    "isConstant": false,
                    "isLValue": false,
                    "isPure": false,
                    "lValueRequested": false,
                    "memberName": "sender",
                    "nodeType": "MemberAccess",
                    "src": "665:10:11",
                    "typeDescriptions": {
                      "typeIdentifier": "t_address",
                      "typeString": "address"
                    }
                  },
                  "functionReturnParameters": 3276,
                  "id": 3279,
                  "nodeType": "Return",
                  "src": "658:17:11"
                }
              ]
            },
            "id": 3281,
            "implemented": true,
            "kind": "function",
            "modifiers": [],
            "name": "_msgSender",
            "nameLocation": "595:10:11",
            "nodeType": "FunctionDefinition",
            "parameters": {
              "id": 3273,
              "nodeType": "ParameterList",
              "parameters": [],
              "src": "605:2:11"
            },
            "returnParameters": {
              "id": 3276,
              "nodeType": "ParameterList",
              "parameters": [
                {
                  "constant": false,
                  "id": 3275,
                  "mutability": "mutable",
                  "name": "",
                  "nameLocation": "-1:-1:-1",
                  "nodeType": "VariableDeclaration",
                  "scope": 3281,
                  "src": "639:7:11",
                  "stateVariable": false,
                  "storageLocation": "default",
                  "typeDescriptions": {
                    "typeIdentifier": "t_address",
                    "typeString": "address"
                  },
                  "typeName": {
                    "id": 3274,
                    "name": "address",
                    "nodeType": "ElementaryTypeName",
                    "src": "639:7:11",
                    "stateMutability": "nonpayable",
                    "typeDescriptions": {
                      "typeIdentifier": "t_address",
                      "typeString": "address"
                    }
                  },
                  "visibility": "internal"
                }
              ],
              "src": "638:9:11"
            },
            "scope": 3291,
            "src": "586:96:11",
            "stateMutability": "view",
            "virtual": true,
            "visibility": "internal"
          },
          {
            "body": {
              "id": 3289,
              "nodeType": "Block",
              "src": "755:32:11",
              "statements": [
                {
                  "expression": {
                    "expression": {
                      "id": 3286,
                      "name": "msg",
                      "nodeType": "Identifier",
                      "overloadedDeclarations": [],
                      "referencedDeclaration": 4294967281,
                      "src": "772:3:11",
                      "typeDescriptions": {
                        "typeIdentifier": "t_magic_message",
                        "typeString": "msg"
                      }
                    },
                    "id": 3287,
                    "isConstant": false,
                    "isLValue": false,
                    "isPure": false,
                    "lValueRequested": false,
                    "memberName": "data",
                    "nodeType": "MemberAccess",
                    "src": "772:8:11",
                    "typeDescriptions": {
                      "typeIdentifier": "t_bytes_calldata_ptr",
                      "typeString": "bytes calldata"
                    }
                  },
                  "functionReturnParameters": 3285,
                  "id": 3288,
                  "nodeType": "Return",
                  "src": "765:15:11"
                }
              ]
            },
            "id": 3290,
            "implemented": true,
            "kind": "function",
            "modifiers": [],
            "name": "_msgData",
            "nameLocation": "697:8:11",
            "nodeType": "FunctionDefinition",
            "parameters": {
              "id": 3282,
              "nodeType": "ParameterList",
              "parameters": [],
              "src": "705:2:11"
            },
            "returnParameters": {
              "id": 3285,
              "nodeType": "ParameterList",
              "parameters": [
                {
                  "constant": false,
                  "id": 3284,
                  "mutability": "mutable",
                  "name": "",
                  "nameLocation": "-1:-1:-1",
                  "nodeType": "VariableDeclaration",
                  "scope": 3290,
                  "src": "739:14:11",
                  "stateVariable": false,
                  "storageLocation": "calldata",
                  "typeDescriptions": {
                    "typeIdentifier": "t_bytes_calldata_ptr",
                    "typeString": "bytes"
                  },
                  "typeName": {
                    "id": 3283,
                    "name": "bytes",
                    "nodeType": "ElementaryTypeName",
                    "src": "739:5:11",
                    "typeDescriptions": {
                      "typeIdentifier": "t_bytes_storage_ptr",
                      "typeString": "bytes"
                    }
                  },
                  "visibility": "internal"
                }
              ],
              "src": "738:16:11"
            },
            "scope": 3291,
            "src": "688:99:11",
            "stateMutability": "view",
            "virtual": true,
            "visibility": "internal"
          }
        ],
        "scope": 3292,
        "src": "554:235:11",
        "usedErrors": []
      }
    ],
    "src": "33:757:11"
  },
  "compiler": {
    "name": "solc",
    "version": "0.8.7+commit.e28d00a7.Emscripten.clang"
  },
  "networks": {},
  "schemaVersion": "3.2.3",
  "updatedAt": "2021-08-23T11:48:05.153Z",
  "devdoc": {
    "kind": "dev",
    "methods": {},
    "version": 1
  },
  "userdoc": {
    "kind": "user",
    "methods": {},
    "version": 1
  }
}